{
  "code": 0,
  "msg": "success",
  "data":{
    "current_page":13,
    "total_page":21,
    "total_count":210,
    "list":[
      {
        "id":"sdfsdfsdfsdfsd",
        "questionNo":"3123333",
        "name":"行政部",
        "phoneNo":"13212345678",
        "qType":"other",
        "qStatus":"wait",
        "waitTime":"11小时30分",
        "questionDetail":"你好，我登录贵司首页视频没有声音，请尽快解决一下，感谢",
        "createTime":"2016-01-20 11:38:23"
      },
      {
        "id":"sdfsdfsdfsdfsd",
        "questionNo":"3123333",
        "name":"行政部",
        "phoneNo":"13212345678",
        "qType":"other",
        "qStatus":"wait",
        "waitTime":"11小时30分",
        "questionDetail":"你好，我登录贵司首页视频没有声音，请尽快解决一下，感谢",
        "createTime":"2016-01-20 11:38:23"
      },
      {
        "id":"sdfsdfsdfsdfsd",
        "questionNo":"3123333",
        "name":"行政部",
        "phoneNo":"13212345678",
        "qType":"other",
        "qStatus":"wait",
        "waitTime":"11小时30分",
        "questionDetail":"你好，我登录贵司首页视频没有声音，请尽快解决一下，感谢",
        "createTime":"2016-01-20 11:38:23"
      },
      {
        "id":"sdfsdfsdfsdfsd",
        "questionNo":"3123333",
        "name":"行政部",
        "phoneNo":"13212345678",
        "qType":"other",
        "qStatus":"wait",
        "waitTime":"11小时30分",
        "questionDetail":"你好，我登录贵司首页视频没有声音，请尽快解决一下，感谢",
        "createTime":"2016-01-20 11:38:23"
      },
      {
        "id":"sdfsdfsdfsdfsd",
        "questionNo":"3123333",
        "name":"行政部",
        "phoneNo":"13212345678",
        "qType":"other",
        "qStatus":"wait",
        "waitTime":"11小时30分",
        "questionDetail":"你好，我登录贵司首页视频没有声音，请尽快解决一下，感谢",
        "createTime":"2016-01-20 11:38:23"
      },
      {
        "id":"sdfsdfsdfsdfsd",
        "questionNo":"3123333",
        "name":"行政部",
        "phoneNo":"13212345678",
        "qType":"other",
        "qStatus":"wait",
        "waitTime":"11小时30分",
        "questionDetail":"你好，我登录贵司首页视频没有声音，请尽快解决一下，感谢",
        "createTime":"2016-01-20 11:38:23"
      },
      {
        "id":"sdfsdfsdfsdfsd",
        "questionNo":"3123333",
        "name":"行政部",
        "phoneNo":"13212345678",
        "qType":"other",
        "qStatus":"wait",
        "waitTime":"11小时30分",
        "questionDetail":"你好，我登录贵司首页视频没有声音，请尽快解决一下，感谢",
        "createTime":"2016-01-20 11:38:23"
      },
      {
        "id":"sdfsdfsdfsdfsd",
        "questionNo":"3123333",
        "name":"行政部",
        "phoneNo":"13212345678",
        "qType":"other",
        "qStatus":"wait",
        "waitTime":"11小时30分",
        "questionDetail":"你好，我登录贵司首页视频没有声音，请尽快解决一下，感谢",
        "createTime":"2016-01-20 11:38:23"
      },
      {
        "id":"sdfsdfsdfsdfsd",
        "questionNo":"3123333",
        "name":"行政部",
        "phoneNo":"13212345678",
        "qType":"other",
        "qStatus":"wait",
        "waitTime":"11小时30分",
        "questionDetail":"你好，我登录贵司首页视频没有声音，请尽快解决一下，感谢",
        "createTime":"2016-01-20 11:38:23"
      },
      {
        "id":"sdfsdfsdfsdfsd",
        "questionNo":"3123333",
        "name":"行政部",
        "phoneNo":"13212345678",
        "qType":"other",
        "qStatus":"wait",
        "waitTime":"11小时30分",
        "questionDetail":"你好，我登录贵司首页视频没有声音，请尽快解决一下，感谢",
        "createTime":"2016-01-20 11:38:23"
      },
      {
        "id":"sdfsdfsdfsdfsd",
        "questionNo":"3123333",
        "name":"行政部",
        "phoneNo":"13212345678",
        "qType":"other",
        "qStatus":"wait",
        "waitTime":"11小时30分",
        "questionDetail":"你好，我登录贵司首页视频没有声音，请尽快解决一下，感谢",
        "createTime":"2016-01-20 11:38:23"
      }

    ]
  }
}