{
  "code": 0,
  "msg": "success",
  "data":{
    "current_page":13,
    "total_page":21,
    "total_count":210,
    "list":[
      {
        "id":"123456799",
        "title":"某手world",
        "createTime":"2014-11-21",
        "content":"《骏网一卡通》充值业务暂停通告，请全体知悉。《骏网一卡通》充值业务暂停通告，请全体知悉看来是觉得烦了"
      },{
        "id":"123456799",
        "title":"某手world",
        "createTime":"2014-11-21",
        "content":"《骏网一卡通》充值业务暂停通告，请全体知悉。《骏网一卡通》充值业务暂停通告，请全体知悉看来是觉得烦了"
      },{
        "id":"123456799",
        "title":"某手world",
        "createTime":"2014-11-21",
        "content":"《骏网一卡通》充值业务暂停通告，请全体知悉。《骏网一卡通》充值业务暂停通告，请全体知悉看来是觉得烦了"
      },{
        "id":"123456799",
        "title":"某手world",
        "createTime":"2014-11-21",
        "content":"《骏网一卡通》充值业务暂停通告，请全体知悉。《骏网一卡通》充值业务暂停通告，请全体知悉看来是觉得烦了"
      },{
        "id":"123456799",
        "title":"某手world",
        "createTime":"2014-11-21",
        "content":"《骏网一卡通》充值业务暂停通告，请全体知悉。《骏网一卡通》充值业务暂停通告，请全体知悉看来是觉得烦了"
      },{
        "id":"123456799",
        "title":"某手world",
        "createTime":"2014-11-21",
        "content":"《骏网一卡通》充值业务暂停通告，请全体知悉。《骏网一卡通》充值业务暂停通告，请全体知悉看来是觉得烦了"
      }

    ]
  }
}