{
  "code": 0,
  "msg": "success",
  "data":{
    "current_page":13,
    "total_page":21,
    "total_count":210,
    "list":[
      {
        "id":"sdfsdfsdfsdfsd",
        "jobNumber":"123456799",
        "name":"123456799",
        "phoneNo":"魔兽世界点卡3000点",
        "department":"http://placehold.it/36x36",
        "position":"20",
        "account":"5",
        "permissions":"王五",
        "createTime":"2014-11-21"
      },
      {
        "id":"sdfsdfsdfsdfsd",
        "jobNumber":"123456799",
        "name":"123456799",
        "phoneNo":"魔兽世界点卡3000点",
        "department":"http://placehold.it/36x36",
        "position":"20",
        "account":"5",
        "permissions":"王五",
        "createTime":"2014-11-21"
      },
      {
        "id":"sdfsdfsdfsdfsd",
        "jobNumber":"123456799",
        "name":"123456799",
        "phoneNo":"魔兽世界点卡3000点",
        "department":"http://placehold.it/36x36",
        "position":"20",
        "account":"5",
        "permissions":"王五",
        "createTime":"2014-11-21"
      },
      {
        "id":"sdfsdfsdfsdfsd",
        "jobNumber":"123456799",
        "name":"123456799",
        "phoneNo":"魔兽世界点卡3000点",
        "department":"http://placehold.it/36x36",
        "position":"20",
        "account":"5",
        "permissions":"王五",
        "createTime":"2014-11-21"
      },
      {
        "id":"sdfsdfsdfsdfsd",
        "jobNumber":"123456799",
        "name":"123456799",
        "phoneNo":"魔兽世界点卡3000点",
        "department":"http://placehold.it/36x36",
        "position":"20",
        "account":"5",
        "permissions":"王五",
        "createTime":"2014-11-21"
      },
      {
        "id":"sdfsdfsdfsdfsd",
        "jobNumber":"123456799",
        "name":"123456799",
        "phoneNo":"魔兽世界点卡3000点",
        "department":"http://placehold.it/36x36",
        "position":"20",
        "account":"5",
        "permissions":"王五",
        "createTime":"2014-11-21"
      },
      {
        "id":"sdfsdfsdfsdfsd",
        "jobNumber":"123456799",
        "name":"123456799",
        "phoneNo":"魔兽世界点卡3000点",
        "department":"http://placehold.it/36x36",
        "position":"20",
        "account":"5",
        "permissions":"王五",
        "createTime":"2014-11-21"
      },
      {
        "id":"sdfsdfsdfsdfsd",
        "jobNumber":"123456799",
        "name":"123456799",
        "phoneNo":"魔兽世界点卡3000点",
        "department":"http://placehold.it/36x36",
        "position":"20",
        "account":"5",
        "permissions":"王五",
        "createTime":"2014-11-21"
      },
      {
        "id":"sdfsdfsdfsdfsd",
        "jobNumber":"123456799",
        "name":"123456799",
        "phoneNo":"魔兽世界点卡3000点",
        "department":"http://placehold.it/36x36",
        "position":"20",
        "account":"5",
        "permissions":"王五",
        "createTime":"2014-11-21"
      },
      {
        "id":"sdfsdfsdfsdfsd",
        "jobNumber":"123456799",
        "name":"123456799",
        "phoneNo":"魔兽世界点卡3000点",
        "department":"http://placehold.it/36x36",
        "position":"20",
        "account":"5",
        "permissions":"王五",
        "createTime":"2014-11-21"
      }

    ]
  }
}