{
  "code": 0,
  "msg": "success",
  "data":{
    "current_page":13,
    "total_page":21,
    "total_count":210,
    "list":[
      {
        "id":"sdfsdfsdfsdfsd",
        "operator":"魔兽世界",
        "department":"行政部",
        "content":"商品魔兽世界点卡 修改价格",
        "function":"代占泰",
        "createTime":"2014-11-21"
      },{
        "id":"sdfsdfsdfsdfsd",
        "operator":"魔兽世界",
        "department":"行政部",
        "content":"商品魔兽世界点卡 修改价格",
        "function":"代占泰",
        "createTime":"2014-11-21"
      },{
        "id":"sdfsdfsdfsdfsd",
        "operator":"魔兽世界",
        "department":"行政部",
        "content":"商品魔兽世界点卡 修改价格",
        "function":"代占泰",
        "createTime":"2014-11-21"
      },{
        "id":"sdfsdfsdfsdfsd",
        "operator":"魔兽世界",
        "department":"行政部",
        "content":"商品魔兽世界点卡 修改价格",
        "function":"代占泰",
        "createTime":"2014-11-21"
      },{
        "id":"sdfsdfsdfsdfsd",
        "operator":"魔兽世界",
        "department":"行政部",
        "content":"商品魔兽世界点卡 修改价格",
        "function":"代占泰",
        "createTime":"2014-11-21"
      },{
        "id":"sdfsdfsdfsdfsd",
        "operator":"魔兽世界",
        "department":"行政部",
        "content":"商品魔兽世界点卡 修改价格",
        "function":"代占泰",
        "createTime":"2014-11-21"
      },{
        "id":"sdfsdfsdfsdfsd",
        "operator":"魔兽世界",
        "department":"行政部",
        "content":"商品魔兽世界点卡 修改价格",
        "function":"代占泰",
        "createTime":"2014-11-21"
      },{
        "id":"sdfsdfsdfsdfsd",
        "operator":"魔兽世界",
        "department":"行政部",
        "content":"商品魔兽世界点卡 修改价格",
        "function":"代占泰",
        "createTime":"2014-11-21"
      },{
        "id":"sdfsdfsdfsdfsd",
        "operator":"魔兽世界",
        "department":"行政部",
        "content":"商品魔兽世界点卡 修改价格",
        "function":"代占泰",
        "createTime":"2014-11-21"
      },{
        "id":"sdfsdfsdfsdfsd",
        "operator":"魔兽世界",
        "department":"行政部",
        "content":"商品魔兽世界点卡 修改价格",
        "function":"代占泰",
        "createTime":"2014-11-21"
      },{
        "id":"sdfsdfsdfsdfsd",
        "operator":"魔兽世界",
        "department":"行政部",
        "content":"商品魔兽世界点卡 修改价格",
        "function":"代占泰",
        "createTime":"2014-11-21"
      },{
        "id":"sdfsdfsdfsdfsd",
        "operator":"魔兽世界",
        "department":"行政部",
        "content":"商品魔兽世界点卡 修改价格",
        "function":"代占泰",
        "createTime":"2014-11-21"
      },{
        "id":"sdfsdfsdfsdfsd",
        "operator":"魔兽世界",
        "department":"行政部",
        "content":"商品魔兽世界点卡 修改价格",
        "function":"代占泰",
        "createTime":"2014-11-21"
      },
      {
        "id":"1232134",
        "operator":"杨建",
        "department":"运营部",
        "content":"充值订单 订单2134188123 订单关闭",
        "function":"办公用品申请",
        "createTime":"2014-11-21"
      }

    ]
  }
}