{
    "code":0,
    "msg":"success",
    "data":{
        "current_page":1,
        "total_page":34,
        "total_count":335,
        "list":[
            {
                "percent":100,
                "rank":1,
                "id":"99523",
                "path":"qd_jINywn9888.docx",
                "name":"第二节　台湾省",
                "stageId":"1",
                "subjectId":"15",
                "abondonTime":"2014-11-03 09:30:44",
                "documentId":"0",
                "auditingTime":"0000-00-00 00:00:00",
                "evalTime":"2014-11-03 09:26:30",
                "prov":"NULL",
                "city":"NULL",
                "county":"NULL",
                "state":"ENABLED",
                "bannedReason":"NULL",
                "type":"NULL",
                "uploadTime":"2014-11-03 09:04:27",
                "operatorId":"11167",
                "uploaderId":"11167",
                "evaluatorId":"11167",
                "auditingId":null,
                "stage":"NULL",
                "subject":"NULL",
                "md5":"aeb9f024ac69fda4c43358d0e8b76532",
                "src":"0",
                "chapterId":"0",
                "uploadSrc":"0",
                "uploaderName":"寇艳萍",
                "auditingName":null,
                "operatorName":"寇艳萍",
                "evaluatorName":"寇艳萍",
                "stageSubjectName":"地理",
                "countFav":"0",
                "countRef":"0",
                "countLike":"0",
                "countQuestion":"8",
                "region":"7",
                "year":"2014",
                "typeId":"7",
                "examRegion":null,
                "provinceId":"0",
                "cityId":"0",
                "areaId":"0",
                "term":"1",
                "gradeId":"7",
                "score":null,
                "timestamp":"1414976667"
            },
            {
                "percent":100,
                "rank":2,
                "id":"100876",
                "path":"qd_jIxs0L3131.docx",
                "name":"第一节　东南亚",
                "stageId":"1",
                "subjectId":"15",
                "abondonTime":"2014-11-04 20:04:24",
                "documentId":"0",
                "auditingTime":"0000-00-00 00:00:00",
                "evalTime":"2014-11-04 19:26:00",
                "prov":"NULL",
                "city":"NULL",
                "county":"NULL",
                "state":"ENABLED",
                "bannedReason":"NULL",
                "type":"NULL",
                "uploadTime":"2014-11-04 08:50:03",
                "operatorId":"10",
                "uploaderId":"11238",
                "evaluatorId":"10",
                "auditingId":null,
                "stage":"NULL",
                "subject":"NULL",
                "md5":"ff4f03470403bea7bfa333c8e0ae6965",
                "src":"0",
                "chapterId":"0",
                "uploadSrc":"0",
                "uploaderName":"赵彬楠",
                "auditingName":null,
                "operatorName":"付新宇",
                "evaluatorName":"付新宇",
                "stageSubjectName":"地理",
                "countFav":"0",
                "countRef":"0",
                "countLike":"0",
                "countQuestion":"19",
                "region":"7",
                "year":"2014",
                "typeId":"8",
                "examRegion":null,
                "provinceId":"0",
                "cityId":"0",
                "areaId":"0",
                "term":"1",
                "gradeId":"7",
                "score":null,
                "timestamp":"1415062203"
            },
            {
                "percent":100,
                "rank":3,
                "id":"102139",
                "path":"qd_jJZAW68807.docx",
                "name":"第一节 “日落之地”——欧罗巴洲",
                "stageId":"1",
                "subjectId":"15",
                "abondonTime":"2014-11-05 20:36:53",
                "documentId":"0",
                "auditingTime":"0000-00-00 00:00:00",
                "evalTime":"2014-11-05 17:13:56",
                "prov":"NULL",
                "city":"NULL",
                "county":"NULL",
                "state":"ENABLED",
                "bannedReason":"NULL",
                "type":"NULL",
                "uploadTime":"2014-11-05 09:31:35",
                "operatorId":"10",
                "uploaderId":"11255",
                "evaluatorId":"10",
                "auditingId":null,
                "stage":"NULL",
                "subject":"NULL",
                "md5":"830eb2b3473d2958cf219a6c16f748a7",
                "src":"0",
                "chapterId":"0",
                "uploadSrc":"0",
                "uploaderName":"gaoqiang",
                "auditingName":null,
                "operatorName":"付新宇",
                "evaluatorName":"付新宇",
                "stageSubjectName":"地理",
                "countFav":"0",
                "countRef":"0",
                "countLike":"0",
                "countQuestion":"12",
                "region":"7",
                "year":"2014",
                "typeId":"7",
                "examRegion":null,
                "provinceId":"0",
                "cityId":"0",
                "areaId":"0",
                "term":"1",
                "gradeId":"7",
                "score":null,
                "timestamp":"1415151095"
            },
            {
                "percent":98,
                "rank":4,
                "id":"97596",
                "path":"qd_jHP5AF2943.docx",
                "name":"第一节　我国四大地理区域的划分",
                "stageId":"1",
                "subjectId":"15",
                "abondonTime":"2014-11-01 22:52:26",
                "documentId":"0",
                "auditingTime":"0000-00-00 00:00:00",
                "evalTime":"2014-11-01 22:24:08",
                "prov":"NULL",
                "city":"NULL",
                "county":"NULL",
                "state":"ENABLED",
                "bannedReason":"NULL",
                "type":"NULL",
                "uploadTime":"2014-11-01 16:45:26",
                "operatorId":"11168",
                "uploaderId":"10",
                "evaluatorId":"11168",
                "auditingId":null,
                "stage":"NULL",
                "subject":"NULL",
                "md5":"b0399dc79c474a97c9f064a2083a2f79",
                "src":"0",
                "chapterId":"0",
                "uploadSrc":"0",
                "uploaderName":"付新宇",
                "auditingName":null,
                "operatorName":"付永红",
                "evaluatorName":"付永红",
                "stageSubjectName":"地理",
                "countFav":"0",
                "countRef":"0",
                "countLike":"0",
                "countQuestion":"13",
                "region":"5",
                "year":"2014",
                "typeId":"7",
                "examRegion":null,
                "provinceId":"0",
                "cityId":"0",
                "areaId":"0",
                "term":"0",
                "gradeId":"8",
                "score":null,
                "timestamp":"1414831526"
            },
            {
                "percent":97,
                "rank":5,
                "id":"37201",
                "path":"qd_iGgq253393.docx",
                "name":"2014年初中毕业考试山东聊城地理试卷",
                "stageId":"1",
                "subjectId":"15",
                "abondonTime":"2014-11-03 22:56:44",
                "documentId":"0",
                "auditingTime":"0000-00-00 00:00:00",
                "evalTime":"2014-07-26 06:30:47",
                "prov":"山东省",
                "city":"聊城市",
                "county":"NULL",
                "state":"ENABLED",
                "bannedReason":"NULL",
                "type":"NULL",
                "uploadTime":"2014-07-17 10:39:11",
                "operatorId":"10",
                "uploaderId":"10998",
                "evaluatorId":"10",
                "auditingId":null,
                "stage":"NULL",
                "subject":"NULL",
                "md5":"1255cc82337ed82cd6d91f9ce2841236",
                "src":"0",
                "chapterId":"0",
                "uploadSrc":"0",
                "uploaderName":"吴文静",
                "auditingName":null,
                "operatorName":"付新宇",
                "evaluatorName":"付新宇",
                "stageSubjectName":"地理",
                "countFav":"0",
                "countRef":"0",
                "countLike":"0",
                "countQuestion":"7",
                "region":"6",
                "year":"2014",
                "typeId":"1",
                "examRegion":null,
                "provinceId":"370000",
                "cityId":"371500",
                "areaId":"0",
                "term":"1",
                "gradeId":"9",
                "score":null,
                "timestamp":"1405564751"
            },
            {
                "percent":95,
                "rank":6,
                "id":"102144",
                "path":"qd_jJZNU37221.docx",
                "name":"第二节 发达国家集中地——欧洲西部",
                "stageId":"1",
                "subjectId":"15",
                "abondonTime":"2014-11-05 20:37:21",
                "documentId":"0",
                "auditingTime":"0000-00-00 00:00:00",
                "evalTime":"2014-11-05 16:54:25",
                "prov":"NULL",
                "city":"NULL",
                "county":"NULL",
                "state":"ENABLED",
                "bannedReason":"NULL",
                "type":"NULL",
                "uploadTime":"2014-11-05 09:39:51",
                "operatorId":"10",
                "uploaderId":"11255",
                "evaluatorId":"10",
                "auditingId":null,
                "stage":"NULL",
                "subject":"NULL",
                "md5":"efdbacba9a105237ffdd324691a96a95",
                "src":"0",
                "chapterId":"0",
                "uploadSrc":"0",
                "uploaderName":"gaoqiang",
                "auditingName":null,
                "operatorName":"付新宇",
                "evaluatorName":"付新宇",
                "stageSubjectName":"地理",
                "countFav":"0",
                "countRef":"0",
                "countLike":"0",
                "countQuestion":"10",
                "region":"7",
                "year":"2014",
                "typeId":"7",
                "examRegion":null,
                "provinceId":"0",
                "cityId":"0",
                "areaId":"0",
                "term":"1",
                "gradeId":"7",
                "score":null,
                "timestamp":"1415151591"
            },
            {
                "percent":95,
                "rank":7,
                "id":"139714",
                "path":"qd_jpFhqx7925.docx",
                "name":"2014年黄冈市七年级期中地理试卷",
                "stageId":"1",
                "subjectId":"15",
                "abondonTime":"2015-01-05 18:38:28",
                "documentId":"0",
                "auditingTime":"0000-00-00 00:00:00",
                "evalTime":"2015-01-05 16:54:20",
                "prov":"NULL",
                "city":"NULL",
                "county":"NULL",
                "state":"ENABLED",
                "bannedReason":"NULL",
                "type":"NULL",
                "uploadTime":"2014-12-29 14:05:39",
                "operatorId":"11203",
                "uploaderId":"26",
                "evaluatorId":"626",
                "auditingId":null,
                "stage":"NULL",
                "subject":"NULL",
                "md5":"0bb9138abb5ab217e9f2463dd61bb75a",
                "src":"3",
                "chapterId":"0",
                "uploadSrc":"0",
                "uploaderName":"OKAY",
                "auditingName":null,
                "operatorName":"周双双",
                "evaluatorName":null,
                "stageSubjectName":"地理",
                "countFav":"0",
                "countRef":"0",
                "countLike":"0",
                "countQuestion":"9",
                "region":"5",
                "year":"2014",
                "typeId":"3",
                "examRegion":null,
                "provinceId":"0",
                "cityId":"0",
                "areaId":"0",
                "term":"1",
                "gradeId":"7",
                "score":null,
                "timestamp":"1419833139"
            },
            {
                "percent":95,
                "rank":8,
                "id":"158302",
                "path":"qd_k2okon7513.docx",
                "name":"2014年内蒙古七年级下学期期中地理试卷",
                "stageId":"1",
                "subjectId":"15",
                "abondonTime":"2015-01-23 11:45:46",
                "documentId":"0",
                "auditingTime":"0000-00-00 00:00:00",
                "evalTime":"2015-01-21 20:38:20",
                "prov":"NULL",
                "city":"NULL",
                "county":"NULL",
                "state":"ENABLED",
                "bannedReason":"NULL",
                "type":"NULL",
                "uploadTime":"2015-01-21 18:53:09",
                "operatorId":"11203",
                "uploaderId":"26",
                "evaluatorId":"626",
                "auditingId":null,
                "stage":"NULL",
                "subject":"NULL",
                "md5":"f9efca69f5744c4b96e4f58bf65bd189",
                "src":"3",
                "chapterId":"0",
                "uploadSrc":"0",
                "uploaderName":"OKAY",
                "auditingName":null,
                "operatorName":"周双双",
                "evaluatorName":null,
                "stageSubjectName":"地理",
                "countFav":"0",
                "countRef":"0",
                "countLike":"0",
                "countQuestion":"15",
                "region":"7",
                "year":"2014",
                "typeId":"3",
                "examRegion":null,
                "provinceId":"0",
                "cityId":"0",
                "areaId":"0",
                "term":"1",
                "gradeId":"7",
                "score":null,
                "timestamp":"1421837589"
            },
            {
                "percent":95,
                "rank":9,
                "id":"160791",
                "path":"qd_k6DaaI3015.docx",
                "name":"2014年内蒙古八年级下学期模拟地理试卷",
                "stageId":"1",
                "subjectId":"15",
                "abondonTime":"2015-02-07 23:46:03",
                "documentId":"0",
                "auditingTime":"0000-00-00 00:00:00",
                "evalTime":"2015-02-07 21:35:23",
                "prov":"NULL",
                "city":"NULL",
                "county":"NULL",
                "state":"ENABLED",
                "bannedReason":"NULL",
                "type":"NULL",
                "uploadTime":"2015-01-27 14:27:44",
                "operatorId":"11203",
                "uploaderId":"26",
                "evaluatorId":"626",
                "auditingId":null,
                "stage":"NULL",
                "subject":"NULL",
                "md5":"4d915d51ec344510dfc70214ad21b8a0",
                "src":"3",
                "chapterId":"0",
                "uploadSrc":"0",
                "uploaderName":"OKAY",
                "auditingName":null,
                "operatorName":"周双双",
                "evaluatorName":null,
                "stageSubjectName":"地理",
                "countFav":"0",
                "countRef":"0",
                "countLike":"0",
                "countQuestion":"21",
                "region":"7",
                "year":"2014",
                "typeId":"4",
                "examRegion":null,
                "provinceId":"0",
                "cityId":"0",
                "areaId":"0",
                "term":"1",
                "gradeId":"8",
                "score":null,
                "timestamp":"1422340064"
            },
            {
                "percent":95,
                "rank":10,
                "id":"161083",
                "path":"qd_k6N8BC4590.docx",
                "name":"2014年内蒙古八年级下学期期中地理试卷",
                "stageId":"1",
                "subjectId":"15",
                "abondonTime":"2015-02-07 19:05:34",
                "documentId":"0",
                "auditingTime":"0000-00-00 00:00:00",
                "evalTime":"2015-02-05 22:49:07",
                "prov":"NULL",
                "city":"NULL",
                "county":"NULL",
                "state":"ENABLED",
                "bannedReason":"NULL",
                "type":"NULL",
                "uploadTime":"2015-01-27 20:46:51",
                "operatorId":"11203",
                "uploaderId":"26",
                "evaluatorId":"626",
                "auditingId":null,
                "stage":"NULL",
                "subject":"NULL",
                "md5":"64a091711f3e6036b2312d1fc579e8bb",
                "src":"3",
                "chapterId":"0",
                "uploadSrc":"0",
                "uploaderName":"OKAY",
                "auditingName":null,
                "operatorName":"周双双",
                "evaluatorName":null,
                "stageSubjectName":"地理",
                "countFav":"0",
                "countRef":"0",
                "countLike":"0",
                "countQuestion":"12",
                "region":"7",
                "year":"2014",
                "typeId":"3",
                "examRegion":null,
                "provinceId":"0",
                "cityId":"0",
                "areaId":"0",
                "term":"1",
                "gradeId":"8",
                "score":null,
                "timestamp":"1422362811"
            }
        ]
    }
}