{
  "code": 0,
  "msg": "success",
  "data":{
    "current_page":13,
    "total_page":21,
    "total_count":210,
    "list":[
      {
        "id":"1234522336799",
        "productNo":"12345216sdf799",
        "productName":"魔兽世界点卡3000点",
        "productThumbnail":"http://placehold.it/36x36",
        "banknote":"20",
        "type":"1",
        "innerPrice":"17",
        "price":"25",
        "onlineAddress":"http://book.half.com",
        "stock":"123",
        "totalCount":"234234",
        "status":"2",
        "onShelfTime":"2014-12-05",
        "class":"1",
        "description":"本商品是直接充值到您的战网账户，请充值完毕到战网",
        "supplier":"禄游戏充值游戏公司"
      },{
        "id":"12342256799",
        "productNo":"12345111236799",
        "productName":"魔兽世界点卡3000点",
        "productThumbnail":"http://placehold.it/36x36",
        "onlineAddress":"http://book.half.com",
        "banknote":"20",
        "type":"1",
        "innerPrice":"17",
        "price":"25",
        "onShelfTime":"2014-12-05",
        "stock":"123",
        "totalCount":"234234",
        "status":"2",
        "class":"1",
        "description":"本商品是直接充值到您的战网账户，请充值完毕到战网",
        "supplier":"禄游戏充值游戏公司"
      },{
        "id":"12345456799",
        "productNo":"1234dfs5226799",
        "productName":"魔兽世界点卡3000点",
        "productThumbnail":"http://placehold.it/36x36",
        "banknote":"20",
        "onShelfTime":"2014-12-05",
        "onlineAddress":"http://book.half.com",
        "type":"1",
        "innerPrice":"17",
        "price":"25",
        "stock":"123",
        "totalCount":"234234",
        "status":"2",
        "class":"1",
        "description":"本商品是直接充值到您的战网账户，请充值完毕到战网",
        "supplier":"禄游戏充值游戏公司"
      },{
        "id":"1234567sdf99",
        "productNo":"1234vxc56799",
        "productName":"魔兽世界点卡3000点",
        "onShelfTime":"2014-12-05",
        "productThumbnail":"http://placehold.it/36x36",
        "banknote":"20",
        "type":"1",
        "onlineAddress":"http://book.half.com",
        "innerPrice":"17",
        "price":"25",
        "stock":"123",
        "totalCount":"234234",
        "status":"2",
        "class":"1",
        "description":"本商品是直接充值到您的战网账户，请充值完毕到战网",
        "supplier":"禄游戏充值游戏公司"
      },{
        "id":"123456sdf22799",
        "productNo":"dsfdsffds",
        "productName":"魔兽世界点卡3000点",
        "productThumbnail":"http://placehold.it/36x36",
        "onShelfTime":"2014-12-05",
        "banknote":"20",
        "type":"1",
        "innerPrice":"17",
        "onlineAddress":"http://book.half.com",
        "price":"25",
        "stock":"123",
        "totalCount":"234234",
        "status":"2",
        "class":"1",
        "description":"本商品是直接充值到您的战网账户，请充值完毕到战网",
        "supplier":"禄游戏充值游戏公司"
      },{
        "id":"123123dsf456799",
        "productNo":"12345ds234h6799",
        "productName":"魔兽世界点卡3000点",
        "productThumbnail":"http://placehold.it/36x36",
        "banknote":"20",
        "onShelfTime":"2014-12-05",
        "type":"1",
        "innerPrice":"17",
        "price":"25",
        "stock":"123",
        "onlineAddress":"http://book.half.com",
        "totalCount":"234234",
        "status":"2",
        "class":"1",
        "description":"本商品是直接充值到您的战网账户，请充值完毕到战网",
        "supplier":"禄游戏充值游戏公司"
      },{
        "id":"123456799",
        "productNo":"12345cxvfdg799",
        "onlineAddress":"http://book.half.com",
        "productName":"魔兽世界点卡3000点",
        "productThumbnail":"http://placehold.it/36x36",
        "banknote":"20",
        "type":"1",
        "innerPrice":"17",
        "price":"25",
        "stock":"123",
        "totalCount":"234234",
        "status":"2",
        "onShelfTime":"2014-12-05",
        "class":"1",
        "description":"本商品是直接充值到您的战网账户，请充值完毕到战网",
        "supplier":"禄游戏充值游戏公司"
      },{
        "id":"123456799",
        "productNo":"12345sdf55556799",
        "onlineAddress":"http://book.half.com",
        "productName":"魔兽世界点卡3000点",
        "productThumbnail":"http://placehold.it/36x36",
        "banknote":"20",
        "type":"1",
        "innerPrice":"17",
        "price":"25",
        "stock":"123",
        "onShelfTime":"2014-12-05",
        "totalCount":"234234",
        "status":"2",
        "class":"1",
        "description":"本商品是直接充值到您的战网账户，请充值完毕到战网",
        "supplier":"禄游戏充值游戏公司"
      },{
        "id":"123456799",
        "onlineAddress":"http://book.half.com",
        "productNo":"123456799",
        "productName":"魔兽世界点卡3000点",
        "productThumbnail":"http://placehold.it/36x36",
        "banknote":"20",
        "type":"1",
        "innerPrice":"17",
        "price":"25",
        "stock":"123",
        "totalCount":"234234",
        "onShelfTime":"2014-12-05",
        "status":"2",
        "class":"1",
        "description":"本商品是直接充值到您的战网账户，请充值完毕到战网",
        "supplier":"禄游戏充值游戏公司"
      },{
        "id":"123456799",
        "productNo":"123456799",
        "productName":"魔兽世界点卡3000点",
        "productThumbnail":"http://placehold.it/36x36",
        "banknote":"20",
        "type":"1",
        "onlineAddress":"http://book.half.com",
        "innerPrice":"17",
        "price":"25",
        "stock":"123",
        "totalCount":"234234",
        "onShelfTime":"2014-12-05",
        "status":"2",
        "class":"1",
        "description":"本商品是直接充值到您的战网账户，请充值完毕到战网",
        "supplier":"禄游戏充值游戏公司"
      }

    ]
  }
}