{
  "code": 0,
  "msg": "success",
  "data":{
    "current_page":13,
    "total_page":21,
    "total_count":210,
    "list":[
      {
        "id":"123456799",
        "gameName":"魔兽世界点卡3000点",
        "packageName":"翼新年礼包",
        "packageCDK":"KJHJR3HB6BGSK45HN",
        "status":"stop",
        "phoneNo":"13212345678",
        "nickname":"体知悉",
        "receiveTime":"2014-11-21",
        "createTime":"2013-05-25",
        "packageNo":"15816666",
        "supplier":"隔壁吴老二",
        "type":"担忧收到反馈",
        "count":235423,
        "distributeCount":2343,
        "usedAbleTime":"2014-11-21至2014-11-21"
      },
      {
        "id":"123456799",
        "gameName":"魔兽世界点卡3000点",
        "packageName":"翼新年礼包",
        "packageCDK":"KJHJR3HB6BGSK45HN",
        "status":"stop",
        "phoneNo":"13212345678",
        "nickname":"体知悉",
        "receiveTime":"2014-11-21",
        "createTime":"2013-05-25",
        "packageNo":"15816666",
        "supplier":"隔壁吴老二",
        "type":"担忧收到反馈",
        "count":235423,
        "distributeCount":2343,
        "usedAbleTime":"2014-11-21至2014-11-21"
      },
      {
        "id":"123456799",
        "gameName":"魔兽世界点卡3000点",
        "packageName":"翼新年礼包",
        "packageCDK":"KJHJR3HB6BGSK45HN",
        "status":"stop",
        "phoneNo":"13212345678",
        "nickname":"体知悉",
        "receiveTime":"2014-11-21",
        "createTime":"2013-05-25",
        "packageNo":"15816666",
        "supplier":"隔壁吴老二",
        "type":"担忧收到反馈",
        "count":235423,
        "distributeCount":2343,
        "usedAbleTime":"2014-11-21至2014-11-21"
      },
      {
        "id":"123456799",
        "gameName":"魔兽世界点卡3000点",
        "packageName":"翼新年礼包",
        "packageCDK":"KJHJR3HB6BGSK45HN",
        "status":"stop",
        "phoneNo":"13212345678",
        "nickname":"体知悉",
        "receiveTime":"2014-11-21",
        "createTime":"2013-05-25",
        "packageNo":"15816666",
        "supplier":"隔壁吴老二",
        "type":"担忧收到反馈",
        "count":235423,
        "distributeCount":2343,
        "usedAbleTime":"2014-11-21至2014-11-21"
      },
      {
        "id":"123456799",
        "gameName":"魔兽世界点卡3000点",
        "packageName":"翼新年礼包",
        "packageCDK":"KJHJR3HB6BGSK45HN",
        "status":"stop",
        "phoneNo":"13212345678",
        "nickname":"体知悉",
        "receiveTime":"2014-11-21",
        "createTime":"2013-05-25",
        "packageNo":"15816666",
        "supplier":"隔壁吴老二",
        "type":"担忧收到反馈",
        "count":235423,
        "distributeCount":2343,
        "usedAbleTime":"2014-11-21至2014-11-21"
      },
      {
        "id":"123456799",
        "gameName":"魔兽世界点卡3000点",
        "packageName":"翼新年礼包",
        "packageCDK":"KJHJR3HB6BGSK45HN",
        "status":"stop",
        "phoneNo":"13212345678",
        "nickname":"体知悉",
        "receiveTime":"2014-11-21",
        "createTime":"2013-05-25",
        "packageNo":"15816666",
        "supplier":"隔壁吴老二",
        "type":"担忧收到反馈",
        "count":235423,
        "distributeCount":2343,
        "usedAbleTime":"2014-11-21至2014-11-21"
      }

    ]
  }
}