{
  "code": 0,
  "msg": "success",
  "data":{
    "current_page":13,
    "total_page":21,
    "total_count":210,
    "list":[
      {
        "id":"123456799",
        "gameName":"魔兽世界点卡3000点",
        "packageName":"翼新年礼包",
        "packageCDK":"KJHJR3HB6BGSK45HN",
        "status":"success",
        "phoneNo":"13212345678",
        "nickname":"体知悉",
        "receiveTime":"2014-11-21"
      },
      {
        "id":"123456799",
        "gameName":"魔兽世界点卡3000点",
        "packageName":"翼新年礼包",
        "packageCDK":"KJHJR3HB6BGSK45HN",
        "status":"success",
        "phoneNo":"13212345678",
        "nickname":"体知悉",
        "receiveTime":"2014-11-21"
      },
      {
        "id":"123456799",
        "gameName":"魔兽世界点卡3000点",
        "packageName":"翼新年礼包",
        "packageCDK":"KJHJR3HB6BGSK45HN",
        "status":"success",
        "phoneNo":"13212345678",
        "nickname":"体知悉",
        "receiveTime":"2014-11-21"
      },
      {
        "id":"123456799",
        "gameName":"魔兽世界点卡3000点",
        "packageName":"翼新年礼包",
        "packageCDK":"KJHJR3HB6BGSK45HN",
        "status":"success",
        "phoneNo":"13212345678",
        "nickname":"体知悉",
        "receiveTime":"2014-11-21"
      },
      {
        "id":"123456799",
        "gameName":"魔兽世界点卡3000点",
        "packageName":"翼新年礼包",
        "packageCDK":"KJHJR3HB6BGSK45HN",
        "status":"success",
        "phoneNo":"13212345678",
        "nickname":"体知悉",
        "receiveTime":"2014-11-21"
      },
      {
        "id":"123456799",
        "gameName":"魔兽世界点卡3000点",
        "packageName":"翼新年礼包",
        "packageCDK":"KJHJR3HB6BGSK45HN",
        "status":"success",
        "phoneNo":"13212345678",
        "nickname":"体知悉",
        "receiveTime":"2014-11-21"
      },
      {
        "id":"123456799",
        "gameName":"魔兽世界点卡3000点",
        "packageName":"翼新年礼包",
        "packageCDK":"KJHJR3HB6BGSK45HN",
        "status":"success",
        "phoneNo":"13212345678",
        "nickname":"体知悉",
        "receiveTime":"2014-11-21"
      },
      {
        "id":"123456799",
        "gameName":"魔兽世界点卡3000点",
        "packageName":"翼新年礼包",
        "packageCDK":"KJHJR3HB6BGSK45HN",
        "status":"success",
        "phoneNo":"13212345678",
        "nickname":"体知悉",
        "receiveTime":"2014-11-21"
      },
      {
        "id":"123456799",
        "gameName":"魔兽世界点卡3000点",
        "packageName":"翼新年礼包",
        "packageCDK":"KJHJR3HB6BGSK45HN",
        "status":"success",
        "phoneNo":"13212345678",
        "nickname":"体知悉",
        "receiveTime":"2014-11-21"
      },
      {
        "id":"123456799",
        "gameName":"魔兽世界点卡3000点",
        "packageName":"翼新年礼包",
        "packageCDK":"KJHJR3HB6BGSK45HN",
        "status":"success",
        "phoneNo":"13212345678",
        "nickname":"体知悉",
        "receiveTime":"2014-11-21"
      },
      {
        "id":"123456799",
        "gameName":"魔兽世界点卡3000点",
        "packageName":"翼新年礼包",
        "packageCDK":"KJHJR3HB6BGSK45HN",
        "status":"success",
        "phoneNo":"13212345678",
        "nickname":"体知悉",
        "receiveTime":"2014-11-21"
      },
      {
        "id":"123456799",
        "gameName":"魔兽世界点卡3000点",
        "packageName":"翼新年礼包",
        "packageCDK":"KJHJR3HB6BGSK45HN",
        "status":"success",
        "phoneNo":"13212345678",
        "nickname":"体知悉",
        "receiveTime":"2014-11-21"
      },
      {
        "id":"123456799",
        "gameName":"魔兽世界点卡3000点",
        "packageName":"翼新年礼包",
        "packageCDK":"KJHJR3HB6BGSK45HN",
        "status":"success",
        "phoneNo":"13212345678",
        "nickname":"体知悉",
        "receiveTime":"2014-11-21"
      },
      {
        "id":"123456799",
        "gameName":"魔兽世界点卡3000点",
        "packageName":"翼新年礼包",
        "packageCDK":"KJHJR3HB6BGSK45HN",
        "status":"success",
        "phoneNo":"13212345678",
        "nickname":"体知悉",
        "receiveTime":"2014-11-21"
      },
      {
        "id":"123456799",
        "gameName":"魔兽世界点卡3000点",
        "packageName":"翼新年礼包",
        "packageCDK":"KJHJR3HB6BGSK45HN",
        "status":"success",
        "phoneNo":"13212345678",
        "nickname":"体知悉",
        "receiveTime":"2014-11-21"
      },
      {
        "id":"123456799",
        "gameName":"魔兽世界点卡3000点",
        "packageName":"翼新年礼包",
        "packageCDK":"KJHJR3HB6BGSK45HN",
        "status":"success",
        "phoneNo":"13212345678",
        "nickname":"体知悉",
        "receiveTime":"2014-11-21"
      },
      {
        "id":"123456799",
        "gameName":"魔兽世界点卡3000点",
        "packageName":"翼新年礼包",
        "packageCDK":"KJHJR3HB6BGSK45HN",
        "status":"success",
        "phoneNo":"13212345678",
        "nickname":"体知悉",
        "receiveTime":"2014-11-21"
      }

    ]
  }
}