{
  "code": 0,
  "msg": "success",
  "data":{
    "current_page":23,
    "total_page":345,
    "total_count":3450,
    "list":[
      {
        "id":"123452799",
        "name":"某手world",
        "operation":"asfgsda",
        "status":"normal",
        "count":"12"
      },
      {
        "id":"123456399",
        "name":"cvxcx",
        "operation":"烽火连体",
        "status":"normal",
        "count":"12"
      },
      {
        "id":"123456729",
        "name":"234wersdf",
        "operation":"sdf",
        "status":"normal",
        "count":"12"
      },
      {
        "id":"123456791",
        "name":"qqqfddb",
        "operation":"烽火连体",
        "status":"normal",
        "count":"12"
      }


    ]
  }
}