{
  "code": 0,
  "msg": "success",
  "data":{
    "current_page":23,
    "total_page":345,
    "total_count":3450,
    "list":[
      {
        "id":"123456799",
        "game_name":"某手world",
        "package_name":"烽火连体",
        "content":"gezhong葛总内容是对方就死定了开飞机速度快了附近受得了",
        "condition":"谁的丰盛的丰盛的发",
        "stock":"1234",
        "count":"12",
        "expiration":"2014-12-23 12:34:45"
      },
      {
        "id":"123456799",
        "game_name":"我二次",
        "package_name":"啥地方",
        "content":"史蒂夫我让他压根就看见好看不v那个热太热 尔特人",
        "condition":"21wedzvzxc儿童如何",
        "stock":"456",
        "count":"d",
        "expiration":"2014-12-23 12:34:45"
      },{
        "id":"123456799",
        "game_name":"斯维尔",
        "package_name":"烽火连体",
        "content":"gezhong葛总内容是对方就死定了开飞机速度快了附近受得了",
        "condition":"啥地方统计局发布",
        "stock":"1234",
        "count":"12",
        "expiration":"2014-12-23 12:34:45"
      },{
        "id":"123456799",
        "game_name":"史蒂夫",
        "package_name":"数量",
        "content":"gezhong葛总内容是对方就死定了开飞机速度快了附近受得了",
        "condition":"谁的丰盛的丰盛的发",
        "stock":"1234",
        "count":"12",
        "expiration":"2014-12-23 12:34:45"
      }
    ]
  }
}