{
  "code": 0,
  "msg": "success",
  "data":{
    "current_page":23,
    "total_page":345,
    "total_count":3450,
    "list":[
      {
        "game_id":"123456799",
        "name":"某手world",
        "duty":"烽火连体",
        "charge_content":"王小五",
        "phone_num":"13212345678",
        "create_time":"2014-12-23 12:34:45"
      },
      {
        "game_id":"123456799",
        "name":"历娜康",
        "duty":"bujidao",
        "charge_content":"王小五",
        "phone_num":"13612345678",
        "create_time":"2014-12-23 12:34:45"
      },
      {
        "game_id":"123456729",
        "name":"委员",
        "duty":"总统",
        "charge_content":"张小五",
        "phone_num":"13312345678",
        "create_time":"2015-12-23 12:34:45"
      },
      {
        "game_id":"123456789",
        "name":"投票",
        "duty":"我也不知道",
        "charge_content":"这么",
        "phone_num":"13212345671",
        "create_time":"2014-12-23 12:34:25"
      },
      {
        "game_id":"123456719",
        "name":"职务",
        "duty":"免除",
        "charge_content":"王小六",
        "phone_num":"13212345671",
        "create_time":"2014-12-23 12:34:25"
      }
    ]
  }
}