{
  "code": 0,
  "msg": "success",
  "data":{
    "current_page":13,
    "total_page":21,
    "total_count":210,
    "list":[
      {
        "GoodsCatalogID": "123456799",
        "GoodsCatalogName": "是对方的身"
      },{
        "GoodsCatalogID": "123456799",
        "GoodsCatalogName": "第三方那么久"
      }
      ,{
        "GoodsCatalogID": "123456799",
        "GoodsCatalogName": "uuik是多少"
      }
      ,{
        "GoodsCatalogID": "123456799",
        "GoodsCatalogName": "uuik帮你们"
      }
      ,{
        "GoodsCatalogID": "123456799",
        "GoodsCatalogName": "爱上我的相册"
      }
      ,{
        "GoodsCatalogID": "123456799",
        "GoodsCatalogName": "uuik帮你们"
      }
      ,{
        "GoodsCatalogID": "123456799",
        "GoodsCatalogName": "那你慢慢就"
      }
      ,{
        "GoodsCatalogID": "123456799",
        "GoodsCatalogName": "uuik帮你们"
      }
      ,{
        "GoodsCatalogID": "123456799",
        "GoodsCatalogName": "uuik帮你们"
      }
      ,{
        "GoodsCatalogID": "123456799",
        "GoodsCatalogName": "是对方的身份"
      }
      ,{
        "GoodsCatalogID": "123456799",
        "GoodsCatalogName": "uuik帮你们"
      }
      ,{
        "GoodsCatalogID": "123456799",
        "GoodsCatalogName": "uuik帮你们"
      }
      ,{
        "GoodsCatalogID": "123456799",
        "GoodsCatalogName": "uuik帮你们"
      }
      ,{
        "GoodsCatalogID": "123456799",
        "GoodsCatalogName": "水电费"
      }
      ,{
        "GoodsCatalogID": "123456799",
        "GoodsCatalogName": "是的范德萨范德萨"
      }
      ,{
        "GoodsCatalogID": "123456799",
        "GoodsCatalogName": "是的范德萨范德萨uik帮你们"
      }
      ,{
        "GoodsCatalogID": "123456799",
        "GoodsCatalogName": "uuik第三方帮你们"
      }
      ,{
        "GoodsCatalogID": "123456799",
        "GoodsCatalogName": "uuik是否帮你们"
      }
      ,{
        "GoodsCatalogID": "123456799",
        "GoodsCatalogName": "人"
      }
      ,{
        "GoodsCatalogID": "123456799",
        "GoodsCatalogName": "的说法都是"
      }
      ,{
        "GoodsCatalogID": "123456799",
        "GoodsCatalogName": "uuik帮你们"
      }
      ,{
        "GoodsCatalogID": "123456799",
        "GoodsCatalogName": "第三方"
      }
      ,{
        "GoodsCatalogID": "123456799",
        "GoodsCatalogName": "是的范德萨"
      }
      ,{
        "GoodsCatalogID": "123456799",
        "GoodsCatalogName": "是对方的身份"
      }
      ,{
        "GoodsCatalogID": "123456799",
        "GoodsCatalogName": "水电费"
      }
      ,{
        "GoodsCatalogID": "123456799",
        "GoodsCatalogName": "中出现的都是"
      }
      ,{
        "GoodsCatalogID": "123456799",
        "GoodsCatalogName": "参选果木"
      }
      ,{
        "GoodsCatalogID": "123456799",
        "GoodsCatalogName": "环境可以涂"
      }
      ,{
        "GoodsCatalogID": "123456799",
        "GoodsCatalogName": "而我让他人"
      }
      ,{
        "GoodsCatalogID": "123456799",
        "GoodsCatalogName": "是的范德萨"
      }
      ,{
        "GoodsCatalogID": "123456799",
        "GoodsCatalogName": "水电费"
      }
      ,{
        "GoodsCatalogID": "123456799",
        "GoodsCatalogName": "uuik水电费范德萨范德萨"
      }
      ,{
        "GoodsCatalogID": "123456799",
        "GoodsCatalogName": "似懂非懂水电费哈哈"
      }
      ,{
        "GoodsCatalogID": "123456799",
        "GoodsCatalogName": "werwe第三个放大"
      }
      ,{
        "GoodsCatalogID": "123456799",
        "GoodsCatalogName": "sdfds "
      }


    ]
  }
}