{
  "code": 0,
  "msg": "success",
  "data":{
    "current_page":13,
    "total_page":21,
    "total_count":210,
    "list":[
      {
        "id": "123456799",
        "gameName": "是对方的身"
      },{
        "id": "123456799",
        "gameName": "uuik帮你们"
      },{
        "id": "123456799",
        "gameName": "所发生的"
      },{
        "id": "123456799",
        "gameName": "是对方的身"
      },{
        "id": "123456799",
        "gameName": "女狙击"
      },{
        "id": "123456799",
        "gameName": "gjhg"
      },{
        "id": "123456799",
        "gameName": "nvbhj "
      },{
        "id": "123456799",
        "gameName": "sdfs "
      },{
        "id": "123456799",
        "gameName": "水电费"
      },{
        "id": "123456799",
        "gameName": "是对方的身"
      },{
        "id": "123456799",
        "gameName": "水电费"
      },{
        "id": "123456799",
        "gameName": "第三方的"
      },{
        "id": "123456799",
        "gameName": "许"
      },{
        "id": "123456799",
        "gameName": "是对睡得晚方的身"
      },{
        "id": "123456799",
        "gameName": "是的范德萨"
      },{
        "id": "123456799",
        "gameName": "的说法都是"
      },{
        "id": "123456799",
        "gameName": "是的范德萨"
      },{
        "id": "123456799",
        "gameName": "是对是否收费多少方的身"
      },{
        "id": "123456799",
        "gameName": "是对许方的身"
      },{
        "id": "123456799",
        "gameName": "是的发送到"
      },{
        "id": "123456799",
        "gameName": "圼"
      },{
        "id": "123456799",
        "gameName": "认同以及"
      },{
        "id": "123456799",
        "gameName": "国防生的"
      },{
        "id": "123456799",
        "gameName": "承包工程"
      },{
        "id": "123456799",
        "gameName": "是对方的身"
      },{
        "id": "123456799",
        "gameName": "是对方的身"
      },{
        "id": "123456799",
        "gameName": "是对方的身"
      },{
        "id": "123456799",
        "gameName": "dsf"
      },{
        "id": "123456799",
        "gameName": "dsf"
      },{
        "id": "123456799",
        "gameName": "fdsa"
      },{
        "id": "123456799",
        "gameName": "是对wre方的身"
      },{
        "id": "123456799",
        "gameName": "wr"
      },{
        "id": "123456799",
        "gameName": "是对方的身"
      },{
        "id": "123456799",
        "gameName": "是对方的身"
      },{
        "id": "123456799",
        "gameName": "是对方的身"
      },{
        "id": "123456799",
        "gameName": "是对方的身"
      },{
        "id": "123456799",
        "gameName": "是对方的身"
      },{
        "id": "123456799",
        "gameName": "是对方的身"
      },{
        "id": "123456799",
        "gameName": "是对方的身"
      },{
        "id": "123456799",
        "gameName": "是对方的身"
      },{
        "id": "123456799",
        "gameName": "是对方的身"
      },{
        "id": "123456799",
        "gameName": "是对方的身"
      }

    ]
  }
}